Data Carpentry: Using R to Analyze and Visualize Data (Part 1)
…
## Conflicts with tidy packages ----------------------------------------------

## filter(): dplyr, stats
## lag():    dplyr, stats

A package only needs to be installed once (per major version, e.g.3.3.x to 3.4.x), but must be loaded every time.

The mpg data set

Data on the fuel efficiency of 38 models of cars between 1999 and 2008 from the US EPA:

mpg

## # A tibble: 234 x 11
##    manufacturer      model displ  year   cyl      trans   drv   cty   hwy
##           <chr>      <chr> <dbl> <int> <int>      <chr> <chr> <int> <int>
##  1         audi         a4   1.8  1999     4   auto(l5)     f    18    29
##  2         audi         a4   1.8  1999     4 manual(m5)     f    21    29
##  3         audi         a4   2.0  2008     4 manual(m6)     f    20    31
##  4         audi         a4   2.0  2008     4   auto(av)     f    21    30
##  5         audi         a4   2.8  1999     6   auto(l5)     f    16    26
##  6         audi         a4   2.8  1999     6 manual(m5)     f    18    26
##  7         audi         a4   3.1  2008     6   auto(av)     f    18    27
##  8         audi a4 quattro   1.8  1999     4 manual(m5)     4    18    26
##  9         audi a4 quattro   1.8  1999     4   auto(l5)     4    16    25
## 10         audi a4 quattro   2.0  2008     4 manual(m6)     4    20    28
## # ... with 224 more rows, and 2 more variables: fl <chr>, class <chr>
…
Collapse many values down to a single summary (summarise()).

Can be used in conjunction with group_by()

NYC Flights

# install.packages('nycflights13') # install this package if you don't have it already
library(nycflights13)

NYC Flights

flights

## # A tibble: 336,776 x 19
##     year month   day dep_time sched_dep_time dep_delay arr_time
##    <int> <int> <int>    <int>          <int>     <dbl>    <int>
##  1  2013     1     1      517            515         2      830
##  2  2013     1     1      533            529         4      850
##  3  2013     1     1      542            540         2      923
##  4  2013     1     1      544            545        -1     1004
##  5  2013     1     1      554            600        -6      812
##  6  2013     1     1      554            558        -4      740
##  7  2013     1     1      555            600        -5      913
##  8  2013     1     1      557            600        -3      709
##  9  2013     1     1      557            600        -3      838
## 10  2013     1     1      558            600        -2      753
## # ... with 336,766 more rows, and 12 more variables: sched_arr_time <int>,
## #   arr_delay <dbl>, carrier <chr>, flight <int>, tailnum <chr>,
## #   origin <chr>, dest <chr>, air_time <dbl>, distance <dbl>, hour <dbl>,
## #   minute <dbl>, time_hour <dttm>

What do we see here?

Filter rows

filter(flights, month == 1, day == 1)

## # A tibble: 842 x 19
##     year month   day dep_time sched_dep_time dep_delay arr_time
##    <int> <int> <int>    <int>          <int>     <dbl>    <int>
##  1  2013     1     1      517            515         2      830
##  2  2013     1     1      533            529         4      850
##  3  2013     1     1      542            540         2      923
##  4  2013     1     1      544            545        -1     1004
##  5  2013     1     1      554            600        -6      812
##  6  2013     1     1      554            558        -4      740
##  7  2013     1     1      555            600        -5      913
##  8  2013     1     1      557            600        -3      709
##  9  2013     1     1      557            600        -3      838
## 10  2013     1     1      558            600        -2      753
## # ... with 832 more rows, and 12 more variables: sched_arr_time <int>,
## #   arr_delay <dbl>, carrier <chr>, flight <int>, tailnum <chr>,
## #   origin <chr>, dest <chr>, air_time <dbl>, distance <dbl>, hour <dbl>,
## #   minute <dbl>, time_hour <dttm>
…
Departed in summer (July, August, and September)

Arrived more than two hours late, but didnt leave late

Were delayed by at least an hour, but made up over 30 minutes in flight

Departed between midnight and 6am (inclusive)

How many flights have a missing dep_time? What other variables are missing? What might these rows represent?

Arranging rows

arrange(flights, year, month, day)

## # A tibble: 336,776 x 19
##     year month   day dep_time sched_dep_time dep_delay arr_time
##    <int> <int> <int>    <int>          <int>     <dbl>    <int>
##  1  2013     1     1      517            515         2      830
##  2  2013     1     1      533            529         4      850
##  3  2013     1     1      542            540         2      923
##  4  2013     1     1      544            545        -1     1004
##  5  2013     1     1      554            600        -6      812
##  6  2013     1     1      554            558        -4      740
##  7  2013     1     1      555            600        -5      913
##  8  2013     1     1      557            600        -3      709
##  9  2013     1     1      557            600        -3      838
## 10  2013     1     1      558            600        -2      753
## # ... with 336,766 more rows, and 12 more variables: sched_arr_time <int>,
## #   arr_delay <dbl>, carrier <chr>, flight <int>, tailnum <chr>,
## #   origin <chr>, dest <chr>, air_time <dbl>, distance <dbl>, hour <dbl>,
## #   minute <dbl>, time_hour <dttm>

arrange(flights, desc(arr_delay))

## # A tibble: 336,776 x 19
##     year month   day dep_time sched_dep_time dep_delay arr_time
##    <int> <int> <int>    <int>          <int>     <dbl>    <int>
##  1  2013     1     9      641            900      1301     1242
##  2  2013     6    15     1432           1935      1137     1607
##  3  2013     1    10     1121           1635      1126     1239
##  4  2013     9    20     1139           1845      1014     1457
##  5  2013     7    22      845           1600      1005     1044
##  6  2013     4    10     1100           1900       960     1342
##  7  2013     3    17     2321            810       911      135
##  8  2013     7    22     2257            759       898      121
##  9  2013    12     5      756           1700       896     1058
## 10  2013     5     3     1133           2055       878     1250
## # ... with 336,766 more rows, and 12 more variables: sched_arr_time <int>,
## #   arr_delay <dbl>, carrier <chr>, flight <int>, tailnum <chr>,
## #   origin <chr>, dest <chr>, air_time <dbl>, distance <dbl>, hour <dbl>,
## #   minute <dbl>, time_hour <dttm>

Selecting columns

select(flights, year, month, day)

## # A tibble: 336,776 x 3
##     year month   day
##    <int> <int> <int>
##  1  2013     1     1
##  2  2013     1     1
##  3  2013     1     1
##  4  2013     1     1
##  5  2013     1     1
##  6  2013     1     1
##  7  2013     1     1
##  8  2013     1     1
##  9  2013     1     1
## 10  2013     1     1
## # ... with 336,766 more rows

select(flights, year:day)

## # A tibble: 336,776 x 3
##     year month   day
##    <int> <int> <int>
##  1  2013     1     1
##  2  2013     1     1
##  3  2013     1     1
##  4  2013     1     1
##  5  2013     1     1
##  6  2013     1     1
##  7  2013     1     1
##  8  2013     1     1
##  9  2013     1     1
## 10  2013     1     1
## # ... with 336,766 more rows
…
Add new variables with mutate

flights_sml <- select(flights, 
  year:day, 
  ends_with("delay"), 
  distance, 
  air_time
)

mutate(flights_sml,
  gain = arr_delay - dep_delay,
  speed = distance / air_time * 60
)

## # A tibble: 336,776 x 9
##     year month   day dep_delay arr_delay distance air_time  gain    speed
##    <int> <int> <int>     <dbl>     <dbl>    <dbl>    <dbl> <dbl>    <dbl>
##  1  2013     1     1         2        11     1400      227     9 370.0441
##  2  2013     1     1         4        20     1416      227    16 374.2731
##  3  2013     1     1         2        33     1089      160    31 408.3750
##  4  2013     1     1        -1       -18     1576      183   -17 516.7213
##  5  2013     1     1        -6       -25      762      116   -19 394.1379
##  6  2013     1     1        -4        12      719      150    16 287.6000
##  7  2013     1     1        -5        19     1065      158    24 404.4304
##  8  2013     1     1        -3       -14      229       53   -11 259.2453
##  9  2013     1     1        -3        -8      944      140    -5 404.5714
## 10  2013     1     1        -2         8      733      138    10 318.6957
## # ... with 336,766 more rows
…
Summarising

summarise(flights, delay = mean(dep_delay, na.rm = TRUE))

## # A tibble: 1 x 1
##      delay
##      <dbl>
## 1 12.63907

Summarising, with groups

by_day <- group_by(flights, year, month, day)
summarise(by_day, delay = mean(dep_delay, na.rm = TRUE))

## # A tibble: 365 x 4
## # Groups:   year, month [?]
##     year month   day     delay
##    <int> <int> <int>     <dbl>
##  1  2013     1     1 11.548926
##  2  2013     1     2 13.858824
##  3  2013     1     3 10.987832
##  4  2013     1     4  8.951595
##  5  2013     1     5  5.732218
##  6  2013     1     6  7.148014
##  7  2013     1     7  5.417204
##  8  2013     1     8  2.553073
##  9  2013     1     9  2.276477
## 10  2013     1    10  2.844995
## # ... with 355 more rows
…
Counts and proportions of logical values: sum(x > 10), mean(y == 0)

TRUE is converted to 1 and FALSE to 0

Logical sums

Number of flights before 5:00am:

flights %>% 
  filter(!is.na(dep_delay), !is.na(arr_delay)) %>%
  group_by(year, month, day) %>% 
  summarise(n_early = sum(dep_time < 500))

## # A tibble: 365 x 4
## # Groups:   year, month [?]
##     year month   day n_early
##    <int> <int> <int>   <int>
##  1  2013     1     1       0
##  2  2013     1     2       3
##  3  2013     1     3       4
##  4  2013     1     4       3
##  5  2013     1     5       3
##  6  2013     1     6       2
##  7  2013     1     7       2
##  8  2013     1     8       1
##  9  2013     1     9       3
## 10  2013     1    10       3
## # ... with 355 more rows
…
The read_csv() function tells us that it guessed the types of the various columns. In this situation, the default guesses are fine, but of course we can force it to treat columns certain ways if we wish.

What does the data look like?

revenue_raw

## # A tibble: 122,240 x 8
##     Ref_Date    GEO                          SCHOOL        REVENUE
##        <chr>  <chr>                           <chr>          <chr>
##  1 2000/2001 Canada Total universities and colleges Total revenues
##  2 2001/2002 Canada Total universities and colleges Total revenues
##  3 2002/2003 Canada Total universities and colleges Total revenues
##  4 2003/2004 Canada Total universities and colleges Total revenues
##  5 2004/2005 Canada Total universities and colleges Total revenues
##  6 2005/2006 Canada Total universities and colleges Total revenues
##  7 2006/2007 Canada Total universities and colleges Total revenues
##  8 2007/2008 Canada Total universities and colleges Total revenues
##  9 2008/2009 Canada Total universities and colleges Total revenues
## 10 2009/2010 Canada Total universities and colleges Total revenues
## # ... with 122,230 more rows, and 4 more variables: FUND <chr>,
## #   Vector <chr>, Coordinate <chr>, Value <dbl>
…
What cleanup do we want to do?

As it comes out of CANSIM, this data set contains a number of categories and columns we dont need today.

The data is also in whats often called a long format, where the names of the variables are stored in one column (REVENUE) and the actual values are stored in another (Value).

For certain types of analysis, well want to move into a wide format, where each column represents a variable.

filter() the rows we want

filter(revenue_raw, 
       SCHOOL == 'Total universities and colleges', 
       FUND == 'Total funds (x 1,000)')

## # A tibble: 5,632 x 8
##     Ref_Date    GEO                          SCHOOL        REVENUE
##        <chr>  <chr>                           <chr>          <chr>
##  1 2000/2001 Canada Total universities and colleges Total revenues
##  2 2001/2002 Canada Total universities and colleges Total revenues
##  3 2002/2003 Canada Total universities and colleges Total revenues
##  4 2003/2004 Canada Total universities and colleges Total revenues
##  5 2004/2005 Canada Total universities and colleges Total revenues
##  6 2005/2006 Canada Total universities and colleges Total revenues
##  7 2006/2007 Canada Total universities and colleges Total revenues
##  8 2007/2008 Canada Total universities and colleges Total revenues
##  9 2008/2009 Canada Total universities and colleges Total revenues
## 10 2009/2010 Canada Total universities and colleges Total revenues
## # ... with 5,622 more rows, and 4 more variables: FUND <chr>,
## #   Vector <chr>, Coordinate <chr>, Value <dbl>
…
Complete set of boolean operations. x is the left-hand circle, y is the right-hand circle, and the shaded regions show which parts each operator selects.

filter()

In other words, the previous command is equivalent to this:

filter(revenue_raw, 
       SCHOOL == 'Total universities and colleges' & 
         FUND == 'Total funds (x 1,000)')

## # A tibble: 5,632 x 8
##     Ref_Date    GEO                          SCHOOL        REVENUE
##        <chr>  <chr>                           <chr>          <chr>
##  1 2000/2001 Canada Total universities and colleges Total revenues
##  2 2001/2002 Canada Total universities and colleges Total revenues
##  3 2002/2003 Canada Total universities and colleges Total revenues
##  4 2003/2004 Canada Total universities and colleges Total revenues
##  5 2004/2005 Canada Total universities and colleges Total revenues
##  6 2005/2006 Canada Total universities and colleges Total revenues
##  7 2006/2007 Canada Total universities and colleges Total revenues
##  8 2007/2008 Canada Total universities and colleges Total revenues
##  9 2008/2009 Canada Total universities and colleges Total revenues
## 10 2009/2010 Canada Total universities and colleges Total revenues
## # ... with 5,622 more rows, and 4 more variables: FUND <chr>,
## #   Vector <chr>, Coordinate <chr>, Value <dbl>
…
